1.200000,70,3,1,148.000000 149.000000 150.000000
1.200000,70,3,2,148.000000 147.000000 148.000000
1.200000,70,3,4,161.000000 161.000000 162.000000
1.200000,70,3,5,221.000000 223.000000 220.000000
1.200000,70,3,9,248.000000 253.000000 249.000000
1.200000,70,3,15,304.000000 305.000000 307.000000
1.200000,70,3,50,560.000000 561.000000 559.000000
1.200000,70,3,100,913.000000 909.000000 914.000000
1.200000,70,3,1000,7344.000000 7344.000000 7339.000000
