1.200000,20,10,9,98.000000 99.000000 100.000000
1.200000,50,10,9,160.000000 161.000000 157.000000
1.200000,100,10,9,261.000000 263.000000 259.000000
1.200000,200,10,9,457.000000 457.000000 462.000000
1.200000,500,10,9,1066.000000 1065.000000 1060.000000
1.200000,1000,10,9,2059.000000 2061.000000 2059.000000
1.200000,3000,10,9,12046.000000 12042.000000 12044.000000
1.200000,5000,10,9,20045.000000 20040.000000 20046.000000
